<?xml version="1.0" encoding="UTF-8" standalone="no"?>
<svg
   xmlns:dc="http://purl.org/dc/elements/1.1/"
   xmlns:cc="http://creativecommons.org/ns#"
   xmlns:rdf="http://www.w3.org/1999/02/22-rdf-syntax-ns#"
   xmlns:svg="http://www.w3.org/2000/svg"
   xmlns="http://www.w3.org/2000/svg"
   xmlns:sodipodi="http://sodipodi.sourceforge.net/DTD/sodipodi-0.dtd"
   xmlns:inkscape="http://www.inkscape.org/namespaces/inkscape"
   width="60mm"
   height="60mm"
   viewBox="0 0 60 60"
   version="1.1"
   id="svg8"
   inkscape:version="1.0.2 (e86c870879, 2021-01-15, custom)"
   sodipodi:docname="covid_neg.svg">
  <defs
     id="defs2">
	
	
	
	

		
		
		
		
		
		
	</defs>
  <sodipodi:namedview
     id="base"
     pagecolor="#ffffff"
     bordercolor="#666666"
     borderopacity="1.0"
     inkscape:pageopacity="0.0"
     inkscape:pageshadow="2"
     inkscape:zoom="0.47457256"
     inkscape:cx="306.54506"
     inkscape:cy="299.24008"
     inkscape:document-units="mm"
     inkscape:current-layer="layer1"
     inkscape:document-rotation="0"
     showgrid="false"
     inkscape:window-width="1366"
     inkscape:window-height="705"
     inkscape:window-x="2552"
     inkscape:window-y="660"
     inkscape:window-maximized="1" />
  <metadata
     id="metadata5">
    <rdf:RDF>
      <cc:Work
         rdf:about="">
        <dc:format>image/svg+xml</dc:format>
        <dc:type
           rdf:resource="http://purl.org/dc/dcmitype/StillImage" />
        <dc:title></dc:title>
      </cc:Work>
    </rdf:RDF>
  </metadata>
  <g
     inkscape:label="Capa 1"
     inkscape:groupmode="layer"
     id="layer1">
    <g
       id="g1039"
       transform="matrix(0.81147717,0,0,0.81147717,-102.93628,-480.94926)">
      <g
         id="g1023">
        <g
           id="g1017">
          <path
             d="m 170.4678,618.4348 3.1889,-3.189 c -0.4286,-1.6051 0.0275,-3.3092 1.2027,-4.4843 1.8124,-1.8125 4.7511,-1.8125 6.5635,0 1.8124,1.8124 1.8124,4.7511 0,6.5636 -1.1752,1.1751 -2.8793,1.6313 -4.4844,1.2026 l -3.1889,3.189 c -0.9032,-1.2683 -2.0136,-2.3787 -3.2818,-3.2819 z"
             style="fill:#e0ef9b;fill-rule:evenodd"
             id="path1007" />
          <path
             d="m 173.7495,637.8515 3.189,3.189 c 1.6051,-0.4286 3.3092,0.0275 4.4843,1.2026 1.8125,1.8125 1.8125,4.7511 0,6.5637 -1.8124,1.8125 -4.7511,1.8124 -6.5635,0 -1.1751,-1.1752 -1.6312,-2.8793 -1.2026,-4.4844 l -3.189,-3.1889 c 1.2682,-0.9032 2.3786,-2.0136 3.2818,-3.2819 z"
             style="fill:#e0ef9b;fill-rule:evenodd"
             id="path1009" />
          <path
             d="m 154.3327,641.1334 -3.1889,3.1889 c 0.4286,1.6052 -0.0275,3.3093 -1.2026,4.4844 -1.8125,1.8125 -4.7511,1.8125 -6.5635,0 -1.8125,-1.8125 -1.8125,-4.7511 0,-6.5636 1.1751,-1.1752 2.8792,-1.6313 4.4843,-1.2027 l 3.189,-3.1889 c 0.903,1.2683 2.0134,2.3787 3.2817,3.2819 z"
             style="fill:#e0ef9b;fill-rule:evenodd"
             id="path1011" />
          <path
             d="m 151.0509,621.7166 -3.189,-3.1889 c -1.6051,0.4286 -3.3092,-0.0275 -4.4843,-1.2026 -1.8125,-1.8125 -1.8125,-4.7512 0,-6.5637 1.8124,-1.8125 4.7511,-1.8124 6.5635,0 1.1751,1.1752 1.6312,2.8793 1.2026,4.4844 l 3.1889,3.1889 c -1.2681,0.9032 -2.3785,2.0136 -3.2817,3.2819 z"
             style="fill:#e0ef9b;fill-rule:evenodd"
             id="path1013" />
          <path
             d="m 163.3647,623.8712 a 2.3213,2.3213 0 0 0 1.7312,2.7894 2.3213,2.3213 0 1 0 -1.7312,-2.7894 z"
             style="fill:#e0ef9b;fill-rule:evenodd"
             id="path1015" />
        </g>
        <path
           d="m 163.317,624.3985 c 0,1.2816 1.0389,2.3205 2.3205,2.3205 1.2816,0 2.3206,-1.0389 2.3206,-2.3205 0,-1.2816 -1.039,-2.3206 -2.3206,-2.3206 -1.2815,0 -2.3205,1.039 -2.3205,2.3206 z m -14.6466,3.065 c 0.9783,-5.8302 5.5792,-10.4312 11.4092,-11.4094 v -6.1505 c -1.438,-0.832 -2.3205,-2.3595 -2.3205,-4.0215 0,-2.5632 2.0779,-4.6411 4.6411,-4.6411 2.5632,0 4.6411,2.0779 4.6411,4.6411 0,1.6619 -0.8825,3.1895 -2.3205,4.0215 v 6.1505 c 5.83,0.9784 10.4309,5.5793 11.4092,11.4094 h 6.1508 c 0.8319,-1.438 2.3595,-2.3205 4.0213,-2.3205 2.5633,0 4.6411,2.0779 4.6411,4.6411 0,2.5632 -2.0779,4.6412 -4.6411,4.6412 -1.6619,0 -3.1894,-0.8825 -4.0213,-2.3206 l -6.1506,-10e-5 c -0.9784,5.83 -5.5792,10.431 -11.4095,11.4092 v 6.1508 c 1.4381,0.832 2.3206,2.3595 2.3206,4.0213 0,2.5634 -2.078,4.6412 -4.6411,4.6412 -2.5632,0 -4.6412,-2.0778 -4.6412,-4.6412 0,-1.6618 0.8825,-3.1893 2.3206,-4.0213 v -6.1505 c -5.83,-0.9784 -10.431,-5.5794 -11.4092,-11.4095 h -6.1508 c -0.8319,1.4381 -2.3595,2.3206 -4.0213,2.3206 -2.5632,0 -4.6411,-2.078 -4.6411,-4.6412 0,-2.5631 2.0778,-4.6411 4.6411,-4.6411 1.6619,0 3.1894,0.8825 4.0213,2.3205 z m 10.806,2.3651 c -1.9225,0 -3.4809,1.5584 -3.4809,3.4809 0,1.9225 1.5584,3.4809 3.4809,3.4809 1.9225,0 3.4809,-1.5584 3.4809,-3.4809 0,-1.9224 -1.5584,-3.4809 -3.4809,-3.4809 z"
           style="fill:#cbe558;fill-rule:evenodd"
           id="path1019" />
        <path
           d="m 155.9955,633.3095 a 3.4808,3.4808 0 0 0 3.4809,3.4808 3.4808,3.4808 0 1 0 -3.4809,-3.4808 z"
           style="fill:#e0ef9b;fill-rule:evenodd"
           id="path1021" />
      </g>
      <g
         id="g1037">
        <path
           d="m 138.4982,623.9827 c 1.8321,0 3.5544,0.8745 4.6423,2.3205 h 4.5807 c 0.3758,-1.5935 1.0023,-3.0878 1.8359,-4.4394 l -2.0766,-2.0766 c -1.7916,0.253 -3.628,-0.3463 -4.9236,-1.6417 -2.262,-2.262 -2.262,-5.9425 0,-8.2044 2.1593,-2.2505 6.0452,-2.2506 8.2044,0 1.2955,1.2955 1.8951,3.1316 1.6417,4.9234 l 2.0766,2.0766 c 1.3517,-0.8337 2.846,-1.4603 4.4395,-1.8361 v -4.5807 c -4.4173,-3.352 -2.0841,-10.4102 3.4812,-10.4437 5.5656,0.0336 7.8982,7.0926 3.4808,10.4437 v 4.5806 c 1.5935,0.3759 3.0878,1.0024 4.4394,1.8361 l 2.0767,-2.0766 c -0.2533,-1.7918 0.3462,-3.628 1.6417,-4.9234 0.5199,-0.5199 1.1234,-0.9308 1.7934,-1.2213 0.5877,-0.2546 1.2711,0.0152 1.5261,0.6031 0.2547,0.5879 -0.0153,1.2712 -0.6032,1.526 -0.4011,0.1738 -0.7628,0.4205 -1.0754,0.7331 -0.8766,0.8765 -1.2223,2.1658 -0.9021,3.3646 0.1068,0.4001 -0.008,0.8268 -0.3006,1.1198 l -2.2596,2.2596 c 0.5882,0.504 1.1369,1.0528 1.6409,1.6409 l 2.2596,-2.2597 c 0.2929,-0.2928 0.7197,-0.4072 1.1198,-0.3005 1.1989,0.3202 2.4881,-0.0256 3.3646,-0.9021 0.3126,-0.3126 0.5591,-0.6742 0.7328,-1.0749 0.255,-0.5879 0.9379,-0.8577 1.5262,-0.603 0.5879,0.255 0.8579,0.9381 0.603,1.5262 -0.2903,0.6696 -0.7012,1.2728 -1.221,1.7928 -1.2955,1.2954 -3.1313,1.895 -4.9234,1.6416 l -2.0767,2.0767 c 0.8336,1.3516 1.4601,2.8459 1.8359,4.4394 l 4.5807,-1e-4 c 3.3521,-4.4175 10.4102,-2.0844 10.4437,3.4809 -0.0337,5.5655 -7.0924,7.8982 -10.4437,3.4809 h -4.5806 c -0.3758,1.5936 -1.0023,3.0879 -1.836,4.4394 l 2.0765,2.0766 c 1.7916,-0.2538 3.628,0.3462 4.9234,1.6417 2.2506,2.1594 2.2506,6.045 0,8.2043 -2.1594,2.2506 -6.045,2.2506 -8.2045,0 -1.2954,-1.2954 -1.895,-3.1317 -1.6417,-4.9235 l -2.0766,-2.0766 c -1.3517,0.8336 -2.8459,1.4601 -4.4394,1.836 v 4.5808 c 4.4175,3.352 2.0843,10.41 -3.481,10.4436 -5.5655,-0.0337 -7.8982,-7.0925 -3.4807,-10.4436 v -4.5806 c -1.5937,-0.3759 -3.088,-1.0024 -4.4395,-1.8361 l -2.0765,2.0765 c 0.2533,1.7918 -0.3463,3.6281 -1.6417,4.9234 -2.1595,2.2506 -6.045,2.2507 -8.2045,-10e-5 -2.262,-2.262 -2.262,-5.9424 0,-8.2044 1.2954,-1.2955 3.1317,-1.8949 4.9235,-1.6417 l 2.0767,-2.0767 c -0.8336,-1.3516 -1.4601,-2.8458 -1.8359,-4.4394 h -4.5806 c -3.3528,4.4179 -10.4101,2.0839 -10.4438,-3.481 -2e-4,-3.1984 2.6023,-5.8009 5.8012,-5.8009 z m 11.8251,-7.9164 c -0.2929,-0.2929 -0.4075,-0.7197 -0.3007,-1.1198 0.3202,-1.1988 -0.0255,-2.488 -0.9021,-3.3646 -1.2957,-1.3504 -3.627,-1.3504 -4.9226,0 -1.3572,1.3571 -1.3572,3.5654 0,4.9226 0.8765,0.8766 2.1659,1.2223 3.3647,0.9021 0.3999,-0.1067 0.8268,0.008 1.1198,0.3005 l 2.2596,2.2597 c 0.504,-0.5882 1.0528,-1.1369 1.6409,-1.6409 z m 24.1538,27.4356 c 0.2929,0.2928 0.4074,0.7196 0.3006,1.1198 -0.3202,1.1989 0.0255,2.4881 0.9021,3.3647 1.2955,1.3505 3.627,1.3503 4.9226,0 1.3505,-1.2956 1.3503,-3.627 0,-4.9227 -0.8766,-0.8765 -2.1658,-1.2222 -3.3646,-0.9021 -0.4005,0.1069 -0.827,-0.008 -1.1198,-0.3005 l -2.2596,-2.2596 c -0.504,0.5881 -1.0528,1.1367 -1.6409,1.6408 z m -25.7947,-1.6409 c -0.2929,0.2929 -0.7197,0.4073 -1.1198,0.3006 -3.4375,-0.884 -5.8521,3.2873 -3.3646,5.8247 1.2957,1.3505 3.6269,1.3503 4.9226,0 0.8766,-0.8765 1.2223,-2.1658 0.902,-3.3646 -0.1068,-0.4002 0.008,-0.827 0.3007,-1.1198 l 2.2596,-2.2596 c -0.5882,-0.504 -1.1369,-1.0527 -1.6409,-1.6408 z m -10.1842,-8.596 c 1.2397,0 2.3958,-0.6672 3.0171,-1.7413 0.2073,-0.3585 0.5901,-0.5793 1.0043,-0.5793 h 6.1508 c 0.5667,0 1.0505,0.4093 1.1443,0.9682 0.8986,5.356 5.1009,9.5584 10.4569,10.4572 0.5589,0.0938 0.9683,0.5776 0.9683,1.1442 v 6.1506 c 0,0.4141 -0.2208,0.797 -0.5794,1.0043 -3.0549,1.8054 -1.8144,6.4623 1.7397,6.4978 3.5544,-0.0356 4.7942,-4.6929 1.7394,-6.4978 -0.3585,-0.2075 -0.5793,-0.5902 -0.5793,-1.0043 v -6.1508 c 0,-0.5667 0.4093,-1.0505 0.9682,-1.1443 5.356,-0.8986 9.5585,-5.1009 10.4571,-10.4569 0.0939,-0.559 0.5776,-0.9683 1.1443,-0.9683 l 6.1509,10e-5 c 0.4142,0 0.797,0.2208 1.0043,0.5793 1.8055,3.0548 6.4624,1.8144 6.4979,-1.7397 -0.0357,-3.5544 -4.693,-4.7942 -6.4979,-1.7395 -0.2073,0.3586 -0.5901,0.5794 -1.0043,0.5794 l -6.1508,-1e-4 c -0.5667,0 -1.0505,-0.4093 -1.1443,-0.9682 -0.8988,-5.356 -5.1011,-9.5583 -10.4569,-10.4571 -0.559,-0.0939 -0.9683,-0.5776 -0.9683,-1.1443 v -6.1506 c 0,-0.4143 0.2208,-0.797 0.5794,-1.0044 3.0549,-1.8055 1.8145,-6.4624 -1.7397,-6.4979 -3.5544,0.0356 -4.7942,4.693 -1.7395,6.4978 0.3586,0.2075 0.5794,0.5901 0.5794,1.0043 v 6.1506 c 0,0.5666 -0.4093,1.0505 -0.9682,1.1442 -5.356,0.8988 -9.5583,5.1012 -10.457,10.4571 -0.0938,0.5589 -0.5776,0.9682 -1.1443,0.9682 h -6.1508 c -0.4142,0 -0.797,-0.2208 -1.0044,-0.5793 -1.806,-3.0553 -6.4623,-1.8142 -6.4979,1.7396 -2e-4,1.9196 1.5614,3.4811 3.4807,3.4811 z"
           style="fill:#000000;fill-rule:evenodd"
           id="path1025" />
        <path
           d="m 162.1566,624.3985 c 0,-1.9193 1.5615,-3.4809 3.4809,-3.4809 4.6178,0.1912 4.6164,6.7712 0,6.9617 -1.9193,0 -3.4809,-1.5615 -3.4809,-3.4809 z m 3.4809,1.1603 c 0.6398,0 1.1603,-0.5205 1.1603,-1.1603 -0.0637,-1.5392 -2.2571,-1.5387 -2.3206,0 0,0.6398 0.5205,1.1603 1.1603,1.1603 z"
           style="fill:#000000;fill-rule:evenodd"
           id="path1027" />
        <path
           d="m 159.4764,628.6684 c 2.5591,0 4.6411,2.082 4.6411,4.6411 -0.2549,6.1572 -9.0282,6.1553 -9.2823,0 0,-2.5591 2.0821,-4.6411 4.6412,-4.6411 z m 0,6.9618 c 1.2796,0 2.3205,-1.041 2.3205,-2.3206 -0.1275,-3.0786 -4.5141,-3.0776 -4.6412,0 0,1.2795 1.0411,2.3206 2.3207,2.3206 z"
           style="fill:#000000;fill-rule:evenodd"
           id="path1029" />
        <path
           d="m 168.9443,631.6405 h 9e-4 c 0.6408,0 1.1599,0.5195 1.1599,1.1603 -0.0613,1.5389 -2.2601,1.5389 -2.3211,0 0,-0.6408 0.5195,-1.1603 1.1603,-1.1603 z"
           style="fill:#000000;fill-rule:evenodd"
           id="path1031" />
        <path
           d="m 156.6917,625.1893 c -1.5395,-0.0612 -1.5383,-2.2599 0,-2.3205 h 8e-4 c 1.5396,0.0615 1.5376,2.26 -8e-4,2.3205 z"
           style="fill:#000000;fill-rule:evenodd"
           id="path1033" />
        <path
           d="m 181.4228,611.9217 c -1.5395,-0.0612 -1.5383,-2.2599 0,-2.3205 l 0.001,-10e-5 c 1.5396,0.0614 1.5374,2.26 -9e-4,2.3206 z"
           style="fill:#000000;fill-rule:evenodd"
           id="path1035" />
      </g>
    </g>
    <path
       d="m 47.445708,6.6077514 a 8.1921713,8.1921713 0 0 1 8.19217,8.1921566 8.1921713,8.1921713 0 1 1 -8.19217,-8.1921566 z"
       style="fill:#000000;fill-rule:evenodd;stroke-width:0.835264;stroke-miterlimit:4;stroke-dasharray:none"
       id="path1041" />
    <path
       d="m 47.445708,8.5181514 a 6.2817666,6.2817666 0 0 1 6.28177,6.2817566 6.2817666,6.2817666 0 1 1 -6.28177,-6.2817566 z"
       style="fill:#00ff00;fill-rule:evenodd;stroke-width:0.749998;stroke-miterlimit:4;stroke-dasharray:none"
       class="uno"
       id="path1043" />
    <path
       id="XMLID_938_"
       d="m 50.009488,12.163331 -3.54646,3.546457 -1.48895,-1.48895 c -0.27798,-0.27784 -0.72847,-0.27784 -1.00651,0 -0.27791,0.2779 -0.27791,0.72853 0,1.00651 l 1.99217,1.99217 c 0.13899,0.13892 0.3211,0.20845 0.50322,0.20845 0.18212,0 0.36423,-0.0695 0.50322,-0.20845 l 4.04968,-4.04967 c 0.27791,-0.277907 0.27791,-0.728537 0,-1.006517 -0.27791,-0.27783 -0.72839,-0.27783 -1.00637,0 z"
       style="stroke-width:0.0711669" />
  </g>
</svg>
