<?xml version="1.0" encoding="utf-8"?>
<!-- Generator: Adobe Illustrator 25.0.0, SVG Export Plug-In . SVG Version: 6.00 Build 0)  -->
<svg version="1.1" id="icon" xmlns="http://www.w3.org/2000/svg" xmlns:xlink="http://www.w3.org/1999/xlink" x="0px" y="0px"
	 viewBox="0 0 32 32" style="enable-background:new 0 0 32 32;" xml:space="preserve">
<style type="text/css">
	.st0{fill:#B9970A;}
	.st1{fill:none;}
	.st2{fill:#2196F3;}
</style>
<path d="M16,22c2.2,0,4-1.8,4-4s-1.8-4-4-4s-4,1.8-4,4S13.8,22,16,22z M16,16c1.1,0,2,0.9,2,2s-0.9,2-2,2s-2-0.9-2-2S14.9,16,16,16z
	"/>
<rect x="14" y="6" class="st0" width="4" height="2"/>
<path d="M24,2H8C6.9,2,6,2.9,6,4v24c0,1.1,0.9,2,2,2h16c1.1,0,2-0.9,2-2V4C26,2.9,25.1,2,24,2z M20,28h-8v-2c0-0.6,0.4-1,1-1h6
	c0.6,0,1,0.4,1,1V28z M22,28v-2c0-1.7-1.3-3-3-3h-6c-1.7,0-3,1.3-3,3v2H8V4h16v24H22z"/>
<rect id="_Transparent_Rectangle_" class="st1" width="32" height="32"/>
<path class="st2" d="M21.3,11.5c-2.3-0.1,3-4-0.6-8.2c0.5-2.3,3,1,2.9,3.7C23.2,9.8,22.5,11.2,21.3,11.5z M19.7,9.9
	c0,0,0.8-1.2,0.8-2.9s-0.8-2.9-0.8-2.9c-0.3-0.6-1.8-0.2-1.3,0.4c0.7,0.2,0.7,4.8,0,5C18,10.1,19.4,10.5,19.7,9.9z"/>
<path class="st2" d="M16.4,7"/>
</svg>
