<?xml version="1.0" encoding="UTF-8" standalone="no"?>
<svg
   xmlns:dc="http://purl.org/dc/elements/1.1/"
   xmlns:cc="http://creativecommons.org/ns#"
   xmlns:rdf="http://www.w3.org/1999/02/22-rdf-syntax-ns#"
   xmlns:svg="http://www.w3.org/2000/svg"
   xmlns="http://www.w3.org/2000/svg"
   xmlns:sodipodi="http://sodipodi.sourceforge.net/DTD/sodipodi-0.dtd"
   xmlns:inkscape="http://www.inkscape.org/namespaces/inkscape"
   width="200mm"
   height="80mm"
   viewBox="0 0 200 80"
   version="1.1"
   id="svg8"
   inkscape:version="1.0.2 (e86c870879, 2021-01-15, custom)"
   sodipodi:docname="semaforo.svg">
  <defs
     id="defs2" />
  <sodipodi:namedview
     id="base"
     pagecolor="#ffffff"
     bordercolor="#666666"
     borderopacity="1.0"
     inkscape:pageopacity="0.0"
     inkscape:pageshadow="2"
     inkscape:zoom="0.67114695"
     inkscape:cx="375.8551"
     inkscape:cy="198.75156"
     inkscape:document-units="mm"
     inkscape:current-layer="layer1"
     inkscape:document-rotation="0"
     showgrid="false"
     inkscape:window-width="1366"
     inkscape:window-height="705"
     inkscape:window-x="2552"
     inkscape:window-y="660"
     inkscape:window-maximized="1" />
  <metadata
     id="metadata5">
    <rdf:RDF>
      <cc:Work
         rdf:about="">
        <dc:format>image/svg+xml</dc:format>
        <dc:type
           rdf:resource="http://purl.org/dc/dcmitype/StillImage" />
        <dc:title></dc:title>
      </cc:Work>
    </rdf:RDF>
  </metadata>
  <g
     inkscape:label="Capa 1"
     inkscape:groupmode="layer"
     id="layer1">
    <path
       d="M 174.26728,7.1126007 A 16.423082,16.423082 0 0 1 190.69046,23.535651 16.423082,16.423082 0 1 1 174.26728,7.1126007 Z"
       style="fill:#550000;fill-rule:evenodd;stroke-width:0.302784"
       id="path1471" />
    <path
       d="M 174.26728,9.5107083 A 14.024943,14.024943 0 0 1 188.29229,23.535651 14.024943,14.024943 0 1 1 174.26728,9.5107083 Z"
       style="fill:#00ff00;fill-rule:evenodd;stroke-width:0.302784"
       id="path1473" />
    <path
       d="m 166.55575,22.812844 c 0.001,0.02868 0.002,0.05735 0.002,0.08618 0,1.141103 -0.92513,2.066227 -2.06624,2.066227 -1.14111,0 -2.06625,-0.925124 -2.06625,-2.066227 0,-0.150724 0.0163,-0.297727 0.0469,-0.439278 0.55447,-6.069452 5.74292,-10.740042 11.85376,-10.76811 l 0.002,-9e-5 0.0533,-5.97e-4 v -9.1e-5 c 1.14111,0 2.06627,0.925157 2.06627,2.066258 0,1.14107 -0.92516,2.066225 -2.06627,2.066225 -0.0381,0 -0.076,-8.93e-4 -0.11364,-0.0031 l -9e-5,0.0015 c -4.02955,0 -7.36504,3.051454 -7.71136,6.990973 z"
       style="fill:#ffffff;fill-rule:evenodd;stroke-width:0.302784"
       id="path1475" />
    <path
       d="M 104.05671,7.1126007 A 16.423082,16.423082 0 0 1 120.47988,23.535651 16.423082,16.423082 0 1 1 104.05671,7.1126007 Z"
       style="fill:#550000;fill-rule:evenodd;stroke-width:0.302784"
       id="path1465" />
    <path
       d="M 104.05671,9.5107083 A 14.024943,14.024943 0 0 1 118.08172,23.535651 14.024943,14.024943 0 1 1 104.05671,9.5107083 Z"
       style="fill:#00ff00;fill-rule:evenodd;stroke-width:0.302784"
       id="path1467" />
    <path
       d="m 96.3452,22.812844 c 0.0011,0.02868 0.0022,0.05735 0.0022,0.08618 0,1.141103 -0.925128,2.066227 -2.066223,2.066227 -1.141108,0 -2.066235,-0.925124 -2.066235,-2.066227 0,-0.150724 0.01625,-0.297727 0.04692,-0.439278 0.554463,-6.069452 5.74288,-10.740042 11.853708,-10.76811 l 0.002,-9e-5 0.0533,-5.97e-4 v -9.1e-5 c 1.14111,0 2.06627,0.925157 2.06627,2.066258 0,1.14107 -0.92516,2.066225 -2.06627,2.066225 -0.0381,0 -0.076,-8.93e-4 -0.11363,-0.0031 l -9e-5,0.0015 c -4.02956,0 -7.365024,3.051454 -7.711339,6.990973 z"
       style="fill:#ffffff;fill-rule:evenodd;stroke-width:0.302784"
       id="path1469" />
    <path
       d="M 45.646538,7.1126007 A 16.423082,16.423082 0 0 1 62.06962,23.535651 16.423082,16.423082 0 1 1 45.646538,7.1126007 Z"
       style="fill:#550000;fill-rule:evenodd;stroke-width:0.302784"
       id="path982" />
    <path
       d="M 45.646538,9.5107083 A 14.024943,14.024943 0 0 1 59.671481,23.535651 14.024943,14.024943 0 1 1 45.646538,9.5107083 Z"
       style="fill:#00ff00;fill-rule:evenodd;stroke-width:0.302784"
       class="uno" />
    <g
       id="Layer1039"
       transform="matrix(0.81147717,0,0,0.81147717,-100.51271,-462.42003)">
      <g
         id="Layer1040">
        <g
           id="Layer1041">
          <path
             d="m 170.4678,618.4348 3.1889,-3.189 c -0.4286,-1.6051 0.0275,-3.3092 1.2027,-4.4843 1.8124,-1.8125 4.7511,-1.8125 6.5635,0 1.8124,1.8124 1.8124,4.7511 0,6.5636 -1.1752,1.1751 -2.8793,1.6313 -4.4844,1.2026 l -3.1889,3.189 c -0.9032,-1.2683 -2.0136,-2.3787 -3.2818,-3.2819 z"
             style="fill:#e0ef9b;fill-rule:evenodd"
             id="path990" />
          <path
             d="m 173.7495,637.8515 3.189,3.189 c 1.6051,-0.4286 3.3092,0.0275 4.4843,1.2026 1.8125,1.8125 1.8125,4.7511 0,6.5637 -1.8124,1.8125 -4.7511,1.8124 -6.5635,0 -1.1751,-1.1752 -1.6312,-2.8793 -1.2026,-4.4844 l -3.189,-3.1889 c 1.2682,-0.9032 2.3786,-2.0136 3.2818,-3.2819 z"
             style="fill:#e0ef9b;fill-rule:evenodd"
             id="path992" />
          <path
             d="m 154.3327,641.1334 -3.1889,3.1889 c 0.4286,1.6052 -0.0275,3.3093 -1.2026,4.4844 -1.8125,1.8125 -4.7511,1.8125 -6.5635,0 -1.8125,-1.8125 -1.8125,-4.7511 0,-6.5636 1.1751,-1.1752 2.8792,-1.6313 4.4843,-1.2027 l 3.189,-3.1889 c 0.903,1.2683 2.0134,2.3787 3.2817,3.2819 z"
             style="fill:#e0ef9b;fill-rule:evenodd"
             id="path994" />
          <path
             d="m 151.0509,621.7166 -3.189,-3.1889 c -1.6051,0.4286 -3.3092,-0.0275 -4.4843,-1.2026 -1.8125,-1.8125 -1.8125,-4.7512 0,-6.5637 1.8124,-1.8125 4.7511,-1.8124 6.5635,0 1.1751,1.1752 1.6312,2.8793 1.2026,4.4844 l 3.1889,3.1889 c -1.2681,0.9032 -2.3785,2.0136 -3.2817,3.2819 z"
             style="fill:#e0ef9b;fill-rule:evenodd"
             id="path996" />
          <path
             d="m 163.3647,623.8712 a 2.3213,2.3213 0 0 0 1.7312,2.7894 2.3213,2.3213 0 1 0 -1.7312,-2.7894 z"
             style="fill:#e0ef9b;fill-rule:evenodd"
             id="path998" />
        </g>
        <path
           d="m 163.317,624.3985 c 0,1.2816 1.0389,2.3205 2.3205,2.3205 1.2816,0 2.3206,-1.0389 2.3206,-2.3205 0,-1.2816 -1.039,-2.3206 -2.3206,-2.3206 -1.2815,0 -2.3205,1.039 -2.3205,2.3206 z m -14.6466,3.065 c 0.9783,-5.8302 5.5792,-10.4312 11.4092,-11.4094 v -6.1505 c -1.438,-0.832 -2.3205,-2.3595 -2.3205,-4.0215 0,-2.5632 2.0779,-4.6411 4.6411,-4.6411 2.5632,0 4.6411,2.0779 4.6411,4.6411 0,1.6619 -0.8825,3.1895 -2.3205,4.0215 v 6.1505 c 5.83,0.9784 10.4309,5.5793 11.4092,11.4094 h 6.1508 c 0.8319,-1.438 2.3595,-2.3205 4.0213,-2.3205 2.5633,0 4.6411,2.0779 4.6411,4.6411 0,2.5632 -2.0779,4.6412 -4.6411,4.6412 -1.6619,0 -3.1894,-0.8825 -4.0213,-2.3206 l -6.1506,-10e-5 c -0.9784,5.83 -5.5792,10.431 -11.4095,11.4092 v 6.1508 c 1.4381,0.832 2.3206,2.3595 2.3206,4.0213 0,2.5634 -2.078,4.6412 -4.6411,4.6412 -2.5632,0 -4.6412,-2.0778 -4.6412,-4.6412 0,-1.6618 0.8825,-3.1893 2.3206,-4.0213 v -6.1505 c -5.83,-0.9784 -10.431,-5.5794 -11.4092,-11.4095 h -6.1508 c -0.8319,1.4381 -2.3595,2.3206 -4.0213,2.3206 -2.5632,0 -4.6411,-2.078 -4.6411,-4.6412 0,-2.5631 2.0778,-4.6411 4.6411,-4.6411 1.6619,0 3.1894,0.8825 4.0213,2.3205 z m 10.806,2.3651 c -1.9225,0 -3.4809,1.5584 -3.4809,3.4809 0,1.9225 1.5584,3.4809 3.4809,3.4809 1.9225,0 3.4809,-1.5584 3.4809,-3.4809 0,-1.9224 -1.5584,-3.4809 -3.4809,-3.4809 z"
           style="fill:#cbe558;fill-rule:evenodd"
           id="path1001" />
        <path
           d="m 155.9955,633.3095 a 3.4808,3.4808 0 0 0 3.4809,3.4808 3.4808,3.4808 0 1 0 -3.4809,-3.4808 z"
           style="fill:#e0ef9b;fill-rule:evenodd"
           id="path1003" />
      </g>
      <g
         id="Layer1042">
        <path
           d="m 138.4982,623.9827 c 1.8321,0 3.5544,0.8745 4.6423,2.3205 h 4.5807 c 0.3758,-1.5935 1.0023,-3.0878 1.8359,-4.4394 l -2.0766,-2.0766 c -1.7916,0.253 -3.628,-0.3463 -4.9236,-1.6417 -2.262,-2.262 -2.262,-5.9425 0,-8.2044 2.1593,-2.2505 6.0452,-2.2506 8.2044,0 1.2955,1.2955 1.8951,3.1316 1.6417,4.9234 l 2.0766,2.0766 c 1.3517,-0.8337 2.846,-1.4603 4.4395,-1.8361 v -4.5807 c -4.4173,-3.352 -2.0841,-10.4102 3.4812,-10.4437 5.5656,0.0336 7.8982,7.0926 3.4808,10.4437 v 4.5806 c 1.5935,0.3759 3.0878,1.0024 4.4394,1.8361 l 2.0767,-2.0766 c -0.2533,-1.7918 0.3462,-3.628 1.6417,-4.9234 0.5199,-0.5199 1.1234,-0.9308 1.7934,-1.2213 0.5877,-0.2546 1.2711,0.0152 1.5261,0.6031 0.2547,0.5879 -0.0153,1.2712 -0.6032,1.526 -0.4011,0.1738 -0.7628,0.4205 -1.0754,0.7331 -0.8766,0.8765 -1.2223,2.1658 -0.9021,3.3646 0.1068,0.4001 -0.008,0.8268 -0.3006,1.1198 l -2.2596,2.2596 c 0.5882,0.504 1.1369,1.0528 1.6409,1.6409 l 2.2596,-2.2597 c 0.2929,-0.2928 0.7197,-0.4072 1.1198,-0.3005 1.1989,0.3202 2.4881,-0.0256 3.3646,-0.9021 0.3126,-0.3126 0.5591,-0.6742 0.7328,-1.0749 0.255,-0.5879 0.9379,-0.8577 1.5262,-0.603 0.5879,0.255 0.8579,0.9381 0.603,1.5262 -0.2903,0.6696 -0.7012,1.2728 -1.221,1.7928 -1.2955,1.2954 -3.1313,1.895 -4.9234,1.6416 l -2.0767,2.0767 c 0.8336,1.3516 1.4601,2.8459 1.8359,4.4394 l 4.5807,-1e-4 c 3.3521,-4.4175 10.4102,-2.0844 10.4437,3.4809 -0.0337,5.5655 -7.0924,7.8982 -10.4437,3.4809 h -4.5806 c -0.3758,1.5936 -1.0023,3.0879 -1.836,4.4394 l 2.0765,2.0766 c 1.7916,-0.2538 3.628,0.3462 4.9234,1.6417 2.2506,2.1594 2.2506,6.045 0,8.2043 -2.1594,2.2506 -6.045,2.2506 -8.2045,0 -1.2954,-1.2954 -1.895,-3.1317 -1.6417,-4.9235 l -2.0766,-2.0766 c -1.3517,0.8336 -2.8459,1.4601 -4.4394,1.836 v 4.5808 c 4.4175,3.352 2.0843,10.41 -3.481,10.4436 -5.5655,-0.0337 -7.8982,-7.0925 -3.4807,-10.4436 v -4.5806 c -1.5937,-0.3759 -3.088,-1.0024 -4.4395,-1.8361 l -2.0765,2.0765 c 0.2533,1.7918 -0.3463,3.6281 -1.6417,4.9234 -2.1595,2.2506 -6.045,2.2507 -8.2045,-10e-5 -2.262,-2.262 -2.262,-5.9424 0,-8.2044 1.2954,-1.2955 3.1317,-1.8949 4.9235,-1.6417 l 2.0767,-2.0767 c -0.8336,-1.3516 -1.4601,-2.8458 -1.8359,-4.4394 h -4.5806 c -3.3528,4.4179 -10.4101,2.0839 -10.4438,-3.481 -2e-4,-3.1984 2.6023,-5.8009 5.8012,-5.8009 z m 11.8251,-7.9164 c -0.2929,-0.2929 -0.4075,-0.7197 -0.3007,-1.1198 0.3202,-1.1988 -0.0255,-2.488 -0.9021,-3.3646 -1.2957,-1.3504 -3.627,-1.3504 -4.9226,0 -1.3572,1.3571 -1.3572,3.5654 0,4.9226 0.8765,0.8766 2.1659,1.2223 3.3647,0.9021 0.3999,-0.1067 0.8268,0.008 1.1198,0.3005 l 2.2596,2.2597 c 0.504,-0.5882 1.0528,-1.1369 1.6409,-1.6409 z m 24.1538,27.4356 c 0.2929,0.2928 0.4074,0.7196 0.3006,1.1198 -0.3202,1.1989 0.0255,2.4881 0.9021,3.3647 1.2955,1.3505 3.627,1.3503 4.9226,0 1.3505,-1.2956 1.3503,-3.627 0,-4.9227 -0.8766,-0.8765 -2.1658,-1.2222 -3.3646,-0.9021 -0.4005,0.1069 -0.827,-0.008 -1.1198,-0.3005 l -2.2596,-2.2596 c -0.504,0.5881 -1.0528,1.1367 -1.6409,1.6408 z m -25.7947,-1.6409 c -0.2929,0.2929 -0.7197,0.4073 -1.1198,0.3006 -3.4375,-0.884 -5.8521,3.2873 -3.3646,5.8247 1.2957,1.3505 3.6269,1.3503 4.9226,0 0.8766,-0.8765 1.2223,-2.1658 0.902,-3.3646 -0.1068,-0.4002 0.008,-0.827 0.3007,-1.1198 l 2.2596,-2.2596 c -0.5882,-0.504 -1.1369,-1.0527 -1.6409,-1.6408 z m -10.1842,-8.596 c 1.2397,0 2.3958,-0.6672 3.0171,-1.7413 0.2073,-0.3585 0.5901,-0.5793 1.0043,-0.5793 h 6.1508 c 0.5667,0 1.0505,0.4093 1.1443,0.9682 0.8986,5.356 5.1009,9.5584 10.4569,10.4572 0.5589,0.0938 0.9683,0.5776 0.9683,1.1442 v 6.1506 c 0,0.4141 -0.2208,0.797 -0.5794,1.0043 -3.0549,1.8054 -1.8144,6.4623 1.7397,6.4978 3.5544,-0.0356 4.7942,-4.6929 1.7394,-6.4978 -0.3585,-0.2075 -0.5793,-0.5902 -0.5793,-1.0043 v -6.1508 c 0,-0.5667 0.4093,-1.0505 0.9682,-1.1443 5.356,-0.8986 9.5585,-5.1009 10.4571,-10.4569 0.0939,-0.559 0.5776,-0.9683 1.1443,-0.9683 l 6.1509,10e-5 c 0.4142,0 0.797,0.2208 1.0043,0.5793 1.8055,3.0548 6.4624,1.8144 6.4979,-1.7397 -0.0357,-3.5544 -4.693,-4.7942 -6.4979,-1.7395 -0.2073,0.3586 -0.5901,0.5794 -1.0043,0.5794 l -6.1508,-1e-4 c -0.5667,0 -1.0505,-0.4093 -1.1443,-0.9682 -0.8988,-5.356 -5.1011,-9.5583 -10.4569,-10.4571 -0.559,-0.0939 -0.9683,-0.5776 -0.9683,-1.1443 v -6.1506 c 0,-0.4143 0.2208,-0.797 0.5794,-1.0044 3.0549,-1.8055 1.8145,-6.4624 -1.7397,-6.4979 -3.5544,0.0356 -4.7942,4.693 -1.7395,6.4978 0.3586,0.2075 0.5794,0.5901 0.5794,1.0043 v 6.1506 c 0,0.5666 -0.4093,1.0505 -0.9682,1.1442 -5.356,0.8988 -9.5583,5.1012 -10.457,10.4571 -0.0938,0.5589 -0.5776,0.9682 -1.1443,0.9682 h -6.1508 c -0.4142,0 -0.797,-0.2208 -1.0044,-0.5793 -1.806,-3.0553 -6.4623,-1.8142 -6.4979,1.7396 -2e-4,1.9196 1.5614,3.4811 3.4807,3.4811 z"
           style="fill:#000000;fill-rule:evenodd"
           id="path1006" />
        <path
           d="m 162.1566,624.3985 c 0,-1.9193 1.5615,-3.4809 3.4809,-3.4809 4.6178,0.1912 4.6164,6.7712 0,6.9617 -1.9193,0 -3.4809,-1.5615 -3.4809,-3.4809 z m 3.4809,1.1603 c 0.6398,0 1.1603,-0.5205 1.1603,-1.1603 -0.0637,-1.5392 -2.2571,-1.5387 -2.3206,0 0,0.6398 0.5205,1.1603 1.1603,1.1603 z"
           style="fill:#000000;fill-rule:evenodd"
           id="path1008" />
        <path
           d="m 159.4764,628.6684 c 2.5591,0 4.6411,2.082 4.6411,4.6411 -0.2549,6.1572 -9.0282,6.1553 -9.2823,0 0,-2.5591 2.0821,-4.6411 4.6412,-4.6411 z m 0,6.9618 c 1.2796,0 2.3205,-1.041 2.3205,-2.3206 -0.1275,-3.0786 -4.5141,-3.0776 -4.6412,0 0,1.2795 1.0411,2.3206 2.3207,2.3206 z"
           style="fill:#000000;fill-rule:evenodd"
           id="path1010" />
        <path
           d="m 168.9443,631.6405 h 9e-4 c 0.6408,0 1.1599,0.5195 1.1599,1.1603 -0.0613,1.5389 -2.2601,1.5389 -2.3211,0 0,-0.6408 0.5195,-1.1603 1.1603,-1.1603 z"
           style="fill:#000000;fill-rule:evenodd"
           id="path1012" />
        <path
           d="m 156.6917,625.1893 c -1.5395,-0.0612 -1.5383,-2.2599 0,-2.3205 h 8e-4 c 1.5396,0.0615 1.5376,2.26 -8e-4,2.3205 z"
           style="fill:#000000;fill-rule:evenodd"
           id="path1014" />
        <path
           d="m 181.4228,611.9217 c -1.5395,-0.0612 -1.5383,-2.2599 0,-2.3205 l 0.001,-10e-5 c 1.5396,0.0614 1.5374,2.26 -9e-4,2.3206 z"
           style="fill:#000000;fill-rule:evenodd"
           id="path1016" />
      </g>
    </g>
    <path
       d="m 37.935056,22.812844 c 0.0011,0.02868 0.0022,0.05735 0.0022,0.08618 0,1.141103 -0.925128,2.066227 -2.066223,2.066227 -1.141107,0 -2.066234,-0.925124 -2.066234,-2.066227 0,-0.150724 0.01625,-0.297727 0.04692,-0.439278 0.554463,-6.069452 5.742874,-10.740042 11.853689,-10.76811 l 0.0022,-9e-5 0.05333,-5.97e-4 v -9.1e-5 c 1.141095,0 2.066258,0.925157 2.066258,2.066258 0,1.14107 -0.925163,2.066225 -2.066258,2.066225 -0.03811,0 -0.07599,-8.93e-4 -0.113637,-0.0031 l -9.1e-5,0.0015 c -4.029532,0 -7.364998,3.051454 -7.711322,6.990973 z"
       style="fill:#ffffff;fill-rule:evenodd;stroke-width:0.302784"
       id="path1020" />
    <g
       id="Layer1043"
       transform="matrix(0.81147717,0,0,0.81147717,-122.34277,-462.42003)">
      <path
         d="m 258.261,628.2396 h -4.2515 c -1.8737,0 -3.3925,-1.5189 -3.3925,-3.3925 v -1.4953 l 3.4659,10e-5 z"
         style="fill:#6e87f5;fill-rule:evenodd"
         id="path1030" />
      <path
         d="m 280.8389,604.8334 a 4.2768,4.2768 0 0 1 -4.2768,4.2768 4.2768,4.2768 0 1 1 4.2768,-4.2768 z"
         style="fill:#ffe6c3;fill-rule:evenodd"
         id="path1032" />
      <path
         d="m 267.4431,647.5463 v -4.8878 h 4.4461 c 2.6993,0 4.8877,2.1884 4.8877,4.8878 v 0 z"
         style="fill:#f5c86e;fill-rule:evenodd"
         id="path1034" />
      <path
         d="m 267.3209,642.6585 -2.4293,-10.5902 -7.9106,-4.5678 c -2.5256,-1.4584 -3.6634,-5.2539 -1.9109,-7.5851 l 9.3211,2.5733 4.7153,4.7152 c 1.3076,1.3076 2.186,2.9823 2.5186,4.8012 l 1.7518,10.8844 z"
         style="fill:#7d9bff;fill-rule:evenodd"
         id="path1036" />
      <path
         d="m 283.9393,619.6404 -10.9607,-9.7305 c -2.1824,-2.1824 -5.7206,-2.1824 -7.903,0 l -10.0055,10.0055 9.3211,2.5733 6.6746,-6.6747 12.8735,9.325 z"
         style="fill:#a5dc69;fill-rule:evenodd"
         id="path1038" />
      <g
         id="Layer1044">
        <path
           d="m 265.1981,645.4532 a 12.1889,12.1889 0 0 1 -12.1889,12.1889 12.1889,12.1889 0 1 1 12.1889,-12.1889 z"
           style="fill:#c8f5ff;fill-rule:evenodd"
           id="path1040" />
        <path
           d="m 300.9399,645.4532 a 12.1889,12.1889 0 0 1 -12.1889,12.1889 12.1889,12.1889 0 1 1 12.1889,-12.1889 z"
           style="fill:#c8f5ff;fill-rule:evenodd"
           id="path1042" />
      </g>
      <path
         d="m 300.4648,649.051 c -0.6224,-0.2616 -1.3387,0.0303 -1.6003,0.6525 -1.7169,4.0807 -5.6868,6.7174 -10.1136,6.7174 -5.3116,0 -9.7526,-3.7956 -10.755,-8.8167 9e-4,-0.0193 0.003,-0.0382 0.003,-0.0578 0,-0.5382 -0.0707,-1.0601 -0.202,-1.5577 -0.009,-0.1773 -0.0132,-0.3556 -0.0132,-0.5349 0,-4.5871 2.8312,-8.5248 6.8377,-10.1592 l 2.9532,10.4904 c 0.1518,0.5388 0.642,0.8911 1.1757,0.8911 0.1095,0 0.221,-0.0149 0.3317,-0.046 0.6496,-0.183 1.028,-0.8579 0.8451,-1.5074 l -2.9533,-10.4913 c 0.5786,-0.0947 1.1721,-0.1446 1.7771,-0.1446 4.3636,0 8.3112,2.5847 10.0569,6.5851 0.2699,0.6186 0.99,0.9011 1.6087,0.6312 0.6185,-0.27 0.9012,-0.9902 0.6312,-1.6087 -2.1344,-4.8911 -6.9612,-8.0515 -12.2968,-8.0515 -0.8341,0 -1.6505,0.0772 -2.4429,0.2237 l -0.1048,-0.372 c -0.3535,-1.2558 -0.6173,-2.5335 -0.7913,-3.8233 0,-5e-4 -10e-5,-10e-4 -10e-5,-10e-4 -0.1007,-0.7467 -0.1717,-1.4972 -0.2115,-2.2501 0.1112,0.5603 0.6056,0.9828 1.1986,0.9828 h 1.6695 c 2.3114,0 4.192,-1.8805 4.192,-4.192 0,-2.3114 -1.8806,-4.192 -4.192,-4.192 h -3.6655 l -9.3714,-8.3043 c 0.4862,0.1411 0.9993,0.2184 1.5304,0.2184 3.032,0 5.4987,-2.4668 5.4987,-5.4988 0,-3.032 -2.4667,-5.4987 -5.4987,-5.4987 -3.032,0 -5.4988,2.4667 -5.4988,5.4987 0,1.0332 0.2868,2.0002 0.7844,2.8269 -0.8743,-0.3983 -1.8308,-0.6094 -2.8204,-0.6094 -1.8191,0 -3.5292,0.7085 -4.8155,1.9947 l -10.0055,10.0054 c -0.003,0.003 -0.005,0.006 -0.007,0.008 -0.0321,0.0328 -0.0626,0.0676 -0.0913,0.1044 -0.003,0.004 -0.007,0.008 -0.0102,0.0124 -0.001,0.002 -0.003,0.003 -0.004,0.005 -0.6353,0.8449 -0.9981,1.8571 -1.0749,2.9488 l -2.4015,-10e-5 c -0.6749,0 -1.222,0.5472 -1.222,1.222 v 1.4953 c 0,2.5443 2.07,4.6144 4.6145,4.6144 h 1.4487 l -0.6266,2.7058 c -0.5962,-0.0814 -1.2044,-0.1244 -1.8224,-0.1244 -7.3947,-4e-4 -13.4108,6.0158 -13.4108,13.4105 0,4.5273 2.2553,8.5375 5.7012,10.9671 h -4.4793 c -0.6749,0 -1.2219,0.5472 -1.2219,1.2219 0,0.6748 0.547,1.222 1.2219,1.222 h 12.189 c 6.6303,0 12.1512,-4.8368 13.2223,-11.167 0.0746,0.6033 0.5881,1.0705 1.2115,1.0705 l 8.3117,10e-5 c 0.8007,3.1379 2.7108,5.8366 5.2863,7.6525 h -7.7578 c -0.6749,0 -1.222,0.5472 -1.222,1.2219 0,0.6748 0.5471,1.222 1.222,1.222 h 15.4677 c 5.4129,0 10.2669,-3.224 12.3663,-8.2136 0.2616,-0.6219 -0.0306,-1.3382 -0.6525,-1.6001 z m -24.8432,-6.3367 c -0.3541,-0.2742 -0.7387,-0.5105 -1.1483,-0.7025 l -0.465,-2.8898 9.3695,-8.4874 c 0.1368,0.6451 0.2941,1.2861 0.4731,1.922 l 0.1051,0.3732 c -4.2057,1.6157 -7.3979,5.2909 -8.3344,9.7845 z m -7.3273,-1.2777 -2.2118,-9.6416 c -0.0759,-0.3308 -0.2859,-0.6151 -0.58,-0.785 l -7.9106,-4.5679 c -1.0093,-0.5828 -1.7969,-1.7318 -2.0554,-2.9987 -0.1553,-0.7612 -0.1091,-1.482 0.1266,-2.0968 l 3.5585,0.9825 4.5337,1.2516 4.4872,4.4872 c 1.1343,1.1342 1.8874,2.5671 2.1784,4.1444 l 1.4846,9.2248 c -0.006,0 -0.0107,-4e-4 -0.0162,-4e-4 h -3.595 z m -11.6359,-6.3249 c 3.8898,1.3765 6.7782,4.8885 7.2495,9.1201 h -9.3614 z m 26.0941,-9.3235 c 0.0195,0.4104 0.0471,0.8204 0.0833,1.2293 H 270.589 c -0.1957,-0.2335 -0.4011,-0.4603 -0.6185,-0.6778 l -3.8511,-3.8512 5.0736,-5.0736 z m -9.921,6.0227 c -0.001,-0.009 -0.003,-0.0171 -0.004,-0.0257 -0.1476,-0.8076 -0.3889,-1.5857 -0.7152,-2.3238 h 8.9207 l -7.4876,6.7828 z m 16.9849,-9.2005 c 0,0.9638 -0.7841,1.7481 -1.7481,1.7481 h -1.6696 c -0.6322,0 -1.1522,0.4801 -1.2154,1.0956 -0.0147,-0.3684 -0.022,-0.7369 -0.022,-1.1061 v -3.4856 h 2.907 c 0.9639,-10e-5 1.7481,0.784 1.7481,1.748 z m -13.2545,-20.8316 c 1.6844,0 3.0548,1.3704 3.0548,3.0549 0,1.6844 -1.3704,3.0548 -3.0548,3.0548 -1.6845,0 -3.0549,-1.3704 -3.0549,-3.0548 0,-1.6845 1.3703,-3.0549 3.0549,-3.0549 z m -10.6223,8.9952 c 0.8247,-0.8248 1.9212,-1.279 3.0875,-1.279 1.1664,0 2.2628,0.4542 3.0878,1.2791 l 10.6026,9.4162 v 2.5549 l -10.9348,-7.9206 c -0.2151,-0.1558 -0.4664,-0.2323 -0.7164,-0.2323 -0.3149,0 -0.6278,0.1212 -0.8644,0.3579 l -6.1713,6.1714 -4.078,-1.1259 -2.5347,-0.6998 z m -14.1007,14.0732 v -0.2734 h 1.4667 c 0.2717,0.9006 0.7141,1.7344 1.2861,2.4439 h -0.5822 c -1.1968,-2e-4 -2.1706,-0.9738 -2.1706,-2.1705 z m 6.124,4.6312 5.8567,3.3819 1.9232,8.3836 c -1.3313,-4.0163 -4.5129,-7.1964 -8.53,-8.5256 z m -4.9536,26.9424 c -6.0473,0 -10.9671,-4.9197 -10.9671,-10.9671 0,-6.0474 4.9198,-10.967 10.9671,-10.967 0.4289,0 0.8519,0.0255 1.2683,0.0738 l -2.4587,10.6177 c -0.0841,0.3629 0.002,0.7444 0.2339,1.036 0.2318,0.2917 0.5839,0.4616 0.9565,0.4616 h 10.8986 c -0.6096,5.4742 -5.2643,9.745 -10.8986,9.745 z m 15.6558,-10.0964 v -2.4439 h 3.2241 c 1.5931,0 2.952,1.0214 3.4565,2.4439 z"
         style="fill:#000000;fill-rule:evenodd"
         id="path1045" />
      <path
         d="m 300.9399,644.2318 c -0.6749,0 -1.222,0.5472 -1.222,1.2219 l -10e-5,0.0574 c -0.002,0.6747 0.5435,1.2235 1.2184,1.2254 0.001,0 0.002,0 0.004,0 0.6731,0 1.2198,-0.5447 1.2219,-1.2184 l 10e-5,-0.0644 c -10e-5,-0.6747 -0.5472,-1.2219 -1.222,-1.2219 z"
         style="fill:#000000;fill-rule:evenodd"
         id="path1047" />
      <path
         d="m 268.4765,656.4211 c -0.3213,0 -0.6366,0.1296 -0.8639,0.3581 -0.2273,0.2272 -0.358,0.5414 -0.358,0.8639 0,0.3214 0.1307,0.6366 0.358,0.8639 0.2273,0.2272 0.5426,0.358 0.8639,0.358 0.3214,0 0.6366,-0.1307 0.8639,-0.358 0.2285,-0.2273 0.3581,-0.5425 0.3581,-0.8639 0,-0.3226 -0.1296,-0.6366 -0.3581,-0.8639 -0.2273,-0.2285 -0.5413,-0.3581 -0.8639,-0.3581 z"
         style="fill:#000000;fill-rule:evenodd"
         id="path1049" />
      <g
         id="Layer1045" />
      <g
         id="Layer1046" />
      <g
         id="Layer1047" />
      <g
         id="Layer1048" />
      <g
         id="Layer1049" />
      <g
         id="Layer1050" />
      <g
         id="Layer1051" />
      <g
         id="Layer1052" />
      <g
         id="Layer1053" />
      <g
         id="Layer1054" />
      <g
         id="Layer1055" />
      <g
         id="Layer1056" />
      <g
         id="Layer1057" />
      <g
         id="Layer1058" />
      <g
         id="Layer1059" />
    </g>
    <path
       d="m 175.2007,40.550724 -19.10754,-0.335629 0.13931,7.84179 18.86692,-0.304308 z"
       style="fill:#5bc3cd;fill-rule:evenodd;stroke:#1b1918;stroke-width:0.460026;stroke-linecap:butt;stroke-linejoin:miter;stroke-dasharray:none"
       id="path1067" />
    <path
       d="m 143.6035,48.158566 h 37.63233 v 3.499331 H 143.6035 Z"
       style="fill:#ffffff;fill-rule:evenodd;stroke-width:0.811475"
       id="path1069" />
    <g
       id="Layer1060"
       transform="matrix(0.81147717,0,0,0.81147717,-141.81291,-462.42003)">
      <path
         d="m 393.5624,633.987 10.347,0.2894 v 24.4568 h -14.616 v -19.3918 h 4.269 z"
         style="fill:#d9dadb;fill-rule:evenodd;stroke:#1b1918;stroke-width:0.5669;stroke-linecap:butt;stroke-linejoin:miter;stroke-dasharray:none"
         id="path1071" />
      <path
         d="m 364.6917,633.9873 -10.347,0.2894 v 24.4568 h 14.616 v -19.3918 h -4.269 z"
         style="fill:#d9dadb;fill-rule:evenodd;stroke:#1b1918;stroke-width:0.5669;stroke-linecap:butt;stroke-linejoin:miter;stroke-dasharray:none"
         id="path1073" />
      <path
         d="m 378.7658,628.6696 -14.3991,7.0188 -0.0724,2.6772 28.8707,0.2171 -0.0724,-3.3285 z"
         style="fill:#009ee0;fill-rule:evenodd;stroke:#1b1918;stroke-width:0.5669;stroke-linecap:butt;stroke-linejoin:miter;stroke-dasharray:none"
         id="path1075" />
      <path
         d="m 389.3296,619.4802 -22.2137,-0.0724 2.3878,-7.4527 7.9593,-3.7627 8.8276,1.9536 3.9072,6.0781 z"
         style="fill:#ffec00;fill-rule:evenodd;stroke:#1b1918;stroke-width:0.5669;stroke-linecap:butt;stroke-linejoin:miter;stroke-dasharray:none"
         id="path1077" />
      <g
         id="Layer1061">
        <path
           d="m 371.9451,621.9859 c -0.6462,0 -1.1701,0.5238 -1.1701,1.1701 v 2.1299 c 0,0.6463 0.5238,1.1701 1.1701,1.1701 0.6459,0 1.1701,-0.5238 1.1701,-1.1701 v -2.1299 c 0,-0.6463 -0.5242,-1.1701 -1.1701,-1.1701 z"
           style="fill:#000000;fill-rule:evenodd"
           id="path1079" />
        <path
           d="m 376.5578,621.9859 c -0.6459,0 -1.1701,0.5238 -1.1701,1.1701 v 2.1299 c 0,0.6463 0.5242,1.1701 1.1701,1.1701 0.6462,0 1.1701,-0.5238 1.1701,-1.1701 v -2.1299 c 0,-0.6463 -0.5238,-1.1701 -1.1701,-1.1701 z"
           style="fill:#000000;fill-rule:evenodd"
           id="path1081" />
        <path
           d="m 381.1709,626.456 c 0.6462,0 1.17,-0.5238 1.17,-1.1701 v -2.1299 c 0,-0.6463 -0.5237,-1.1701 -1.17,-1.1701 -0.6463,0 -1.1701,0.5238 -1.1701,1.1701 v 2.1299 c 0,0.6462 0.5238,1.1701 1.1701,1.1701 z"
           style="fill:#000000;fill-rule:evenodd"
           id="path1083" />
        <path
           d="m 385.7835,626.456 c 0.6463,0 1.1701,-0.5238 1.1701,-1.1701 v -2.1299 c 0,-0.6463 -0.5238,-1.1701 -1.1701,-1.1701 -0.6458,0 -1.1701,0.5238 -1.1701,1.1701 v 2.1299 c 0,0.6462 0.5243,1.1701 1.1701,1.1701 z"
           style="fill:#000000;fill-rule:evenodd"
           id="path1085" />
        <path
           d="m 407.6949,627.7335 h -3.6766 c -0.6458,0 -1.1701,0.5237 -1.1701,1.17 v 5e-4 c 0,0.6541 0.5375,1.1847 1.1934,1.1696 h 1.198 v 2.8475 h -14.6899 l -6.2489,-2.8475 h 9.1791 c 0.655,0.0155 1.1934,-0.516 1.1934,-1.1701 0,-0.6463 -0.5242,-1.1701 -1.1701,-1.1701 l -1.7971,1e-4 v -6.9725 h 0.7692 c 0.6458,0 1.1701,-0.5238 1.1701,-1.1701 0,-0.6462 -0.5243,-1.17 -1.1701,-1.17 h -0.8227 c -0.2683,-2.9887 -1.5631,-5.7585 -3.714,-7.8971 -1.8237,-1.8136 -4.1012,-3.0138 -6.5803,-3.4974 0.3213,-0.2084 0.5347,-0.5699 0.5347,-0.9813 0,-0.6462 -0.5237,-1.17 -1.17,-1.17 l -0.7012,-10e-5 v -3.7364 c 0,-0.6463 -0.5238,-1.1701 -1.1701,-1.1701 -0.6458,0 -1.1701,0.5238 -1.1701,1.1701 v 3.736 h -0.7006 c -0.6463,0 -1.1701,0.5237 -1.1701,1.17 0,0.4118 0.213,0.7734 0.5348,0.9818 -2.4791,0.4836 -4.7566,1.6838 -6.5803,3.4974 -2.1509,2.1386 -3.4458,4.9084 -3.714,7.897 l -0.8227,10e-5 c -0.6463,0 -1.1701,0.5238 -1.1701,1.17 0,0.6463 0.5238,1.1701 1.1701,1.1701 h 0.7692 v 6.9725 h -15.8705 c -0.6462,0 -1.17,0.5237 -1.17,1.17 0,0.6463 0.5237,1.1701 1.17,1.1701 h 0.1152 v 4.0176 c 0,0.6458 0.5238,1.17 1.1701,1.17 h 1.6536 v 23.3607 c 0,0.6463 0.5238,1.1701 1.1701,1.1701 h 49.3486 c 0.6463,0 1.1701,-0.5238 1.1701,-1.1701 v -23.3607 h 1.6545 c 0.6463,0 1.1701,-0.5238 1.1701,-1.1701 v -4.0175 h 0.1152 c 0.6462,0 1.1701,-0.5238 1.1701,-1.1701 0,-0.6463 -0.5238,-1.1701 -1.1701,-1.1701 z m -42.1422,8.5428 2.459,-1.1202 h 4e-4 l 10.8986,-4.9664 10.8931,4.9632 c 0.002,9e-4 0.004,0.002 0.006,0.003 l 2.459,1.1202 v 1.3657 h -9.9278 v -1.1029 c 0,-1.9032 -1.5485,-3.4517 -3.4521,-3.4517 -1.9037,0 -3.4522,1.5486 -3.4522,3.4517 v 1.1029 h -9.8839 z m 14.4481,1.3653 h -2.2241 v -1.1024 c 0,-0.6129 0.4991,-1.1121 1.1121,-1.1121 0.6133,0 1.112,0.4991 1.112,1.1121 z m -8.5854,-25.4586 c 1.9832,-1.9718 4.6241,-3.0573 7.4368,-3.0573 2.8123,0 5.4536,1.0855 7.4368,3.0573 1.7053,1.6961 2.7524,3.8777 3.013,6.2379 h -20.8995 c 0.26,-2.3603 1.3071,-4.5418 3.0129,-6.238 z m -3.0769,8.578 h 21.0274 v 6.9725 h -21.0274 z m -15.7557,9.3126 h 20.9383 l -6.2489,2.8475 h -14.6894 z m 2.8237,5.1876 h 7.8358 c -0.005,0.0206 -0.007,0.0416 -0.011,0.0622 -0.002,0.015 -0.005,0.0301 -0.008,0.0457 -0.007,0.0507 -0.0109,0.1023 -0.0109,0.1544 v 3.2881 c 0,0.6463 0.5237,1.1701 1.17,1.1701 H 368.2 v 17.4701 l -12.7935,10e-5 z m 15.1336,4.721 h 16.7412 v 17.4697 H 383 v -3.656 c 0,-2.267 -1.8442,-4.1113 -4.1113,-4.1113 -2.267,0 -4.1112,1.8443 -4.1112,4.1113 v 3.656 h -4.2378 v -17.4697 z m 6.5776,17.4697 v -3.656 c 0,-0.9768 0.7948,-1.7711 1.7711,-1.7711 0.9767,0 1.7711,0.7943 1.7711,1.7711 v 3.656 z m 25.2972,0 h -12.7935 v -17.4697 h 3.8174 c 0.6462,0 1.17,-0.5243 1.17,-1.1701 v -3.5509 h 7.8061 z"
           style="fill:#000000;fill-rule:evenodd"
           id="path1087" />
        <path
           d="m 392.6193,644.1199 v 2.2364 c 0,0.6463 0.5242,1.1701 1.17,1.1701 0.6463,0 1.1701,-0.5238 1.1701,-1.1701 v -2.2364 c 0,-0.6462 -0.5238,-1.17 -1.1701,-1.17 -0.6458,0 -1.17,0.5237 -1.17,1.17 z"
           style="fill:#000000;fill-rule:evenodd"
           id="path1089" />
        <path
           d="m 398.6433,647.5264 c 0.6463,0 1.1701,-0.5238 1.1701,-1.1701 v -2.2364 c 0,-0.6462 -0.5238,-1.17 -1.1701,-1.17 -0.6458,0 -1.1701,0.5237 -1.1701,1.17 v 2.2364 c 0,0.6463 0.5238,1.1701 1.1701,1.1701 z"
           style="fill:#000000;fill-rule:evenodd"
           id="path1091" />
        <path
           d="m 393.7893,649.5073 c -0.6458,0 -1.17,0.5237 -1.17,1.17 v 2.2364 c 0,0.6463 0.5242,1.1701 1.17,1.1701 0.6463,0 1.1701,-0.5238 1.1701,-1.1701 v -2.2364 c 0,-0.6462 -0.5238,-1.17 -1.1701,-1.17 z"
           style="fill:#000000;fill-rule:evenodd"
           id="path1093" />
        <path
           d="m 398.6433,654.0838 c 0.6463,0 1.1701,-0.5238 1.1701,-1.1701 v -2.2364 c 0,-0.6462 -0.5238,-1.17 -1.1701,-1.17 -0.6458,0 -1.1701,0.5237 -1.1701,1.17 v 2.2364 c 0,0.6459 0.5238,1.1701 1.1701,1.1701 z"
           style="fill:#000000;fill-rule:evenodd"
           id="path1095" />
        <path
           d="m 359.376,642.9499 c -0.6458,0 -1.1701,0.5237 -1.1701,1.17 v 2.2364 c 0,0.6463 0.5243,1.1701 1.1701,1.1701 0.6463,0 1.1701,-0.5238 1.1701,-1.1701 v -2.2364 c 0,-0.6462 -0.5238,-1.17 -1.1701,-1.17 z"
           style="fill:#000000;fill-rule:evenodd"
           id="path1097" />
        <path
           d="m 364.23,642.9499 c -0.6459,0 -1.1701,0.5237 -1.1701,1.17 v 2.2364 c 0,0.6463 0.5242,1.1701 1.1701,1.1701 0.6462,0 1.17,-0.5238 1.17,-1.1701 v -2.2364 c 0,-0.6462 -0.5237,-1.17 -1.17,-1.17 z"
           style="fill:#000000;fill-rule:evenodd"
           id="path1099" />
        <path
           d="m 359.376,649.5073 c -0.6458,0 -1.1701,0.5237 -1.1701,1.17 v 2.2364 c 0,0.6463 0.5243,1.1701 1.1701,1.1701 0.6463,0 1.1701,-0.5238 1.1701,-1.1701 v -2.2364 c 0,-0.6462 -0.5238,-1.17 -1.1701,-1.17 z"
           style="fill:#000000;fill-rule:evenodd"
           id="path1101" />
        <path
           d="m 364.23,649.5073 c -0.6459,0 -1.1701,0.5237 -1.1701,1.17 v 2.2364 c 0,0.6463 0.5242,1.1701 1.1701,1.1701 0.6462,0 1.17,-0.5238 1.17,-1.1701 v -2.2364 c 0,-0.6462 -0.5237,-1.17 -1.17,-1.17 z"
           style="fill:#000000;fill-rule:evenodd"
           id="path1103" />
        <path
           d="m 375.9476,646.7745 c 0.6463,0 1.1701,-0.5238 1.1701,-1.1701 v -2.118 c 0,-0.6462 -0.5238,-1.17 -1.1701,-1.17 -0.6458,0 -1.1701,0.5237 -1.1701,1.17 v 2.118 c 0,0.6463 0.5238,1.1701 1.1701,1.1701 z"
           style="fill:#000000;fill-rule:evenodd"
           id="path1105" />
        <path
           d="m 381.5799,646.7745 c 0.6459,0 1.1701,-0.5238 1.1701,-1.1701 v -2.118 c 0,-0.6462 -0.5242,-1.17 -1.1701,-1.17 -0.6462,0 -1.17,0.5237 -1.17,1.17 v 2.118 c 0,0.6463 0.5237,1.1701 1.17,1.1701 z"
           style="fill:#000000;fill-rule:evenodd"
           id="path1107" />
        <path
           d="m 398.1437,629.8766 c 0.4119,0.2747 0.969,0.2573 1.3616,-0.0448 0.3812,-0.2939 0.5467,-0.8071 0.4064,-1.2679 -0.1463,-0.4803 -0.5956,-0.8208 -1.0983,-0.83 -0.4886,-0.009 -0.942,0.2994 -1.1144,0.7565 -0.1905,0.5041 -0.002,1.0859 0.4447,1.3862 z"
           style="fill:#000000;fill-rule:evenodd"
           id="path1109" />
      </g>
    </g>
  </g>
</svg>
